{
  "verified_claims": {
    "verification": {
      "trust_framework":"eidas_ial_substantial",
      "evidence": [
        {
          "type": "id_document",
          "method": "pipp",
          "time": "2012-04-22T11:30Z",
          "document": {
            "type": "idcard",
            "issuer": {
              "name": "Stadt Augsburg",
              "country": "DE"
            },
            "number": "53554554",
            "date_of_issuance": "2010-03-23",
            "date_of_expiry": "2020-03-22"
          },
          "attachments": [
            {
              "desc": "Front of id document",
              "content_type": "image/png",
              "content": "Wkd0bWFtVnlhWFI2Wlc0Mk16VER2RFUyY0RRMWFUbDBNelJ1TlRjd31dzdaM1pTQXJaWGRsTXpNZ2RETmxDZwo="
            },
            {
              "desc": "Back of id document",
              "content_type": "image/png",
              "content": "iVBORw0KGgoAAAANSUhEUgAAAAIAAAACCAYAAABytg0kAADSFsjdkhjwhAABJRU5ErkJggg=="
            }
          ]
        }
      ]
    },
    "claims": {
      "given_name": "Max",
      "family_name": "Mustermann",
      "birthdate": "1956-01-28"
    }
  }
}
